%YAML 1.1
%TAG !u! tag:unity3d.com,2011:
--- !u!29 &1
OcclusionCullingSettings:
  m_ObjectHideFlags: 0
  serializedVersion: 2
  m_OcclusionBakeSettings:
    smallestOccluder: 5
    smallestHole: 0.25
    backfaceThreshold: 100
  m_SceneGUID: 00000000000000000000000000000000
  m_OcclusionCullingData: {fileID: 0}
--- !u!104 &2
RenderSettings:
  m_ObjectHideFlags: 0
  serializedVersion: 9
  m_Fog: 0
  m_FogColor: {r: 0.5, g: 0.5, b: 0.5, a: 1}
  m_FogMode: 3
  m_FogDensity: 0.01
  m_LinearFogStart: 0
  m_LinearFogEnd: 300
  m_AmbientSkyColor: {r: 0.212, g: 0.227, b: 0.259, a: 1}
  m_AmbientEquatorColor: {r: 0.114, g: 0.125, b: 0.133, a: 1}
  m_AmbientGroundColor: {r: 0.047, g: 0.043, b: 0.035, a: 1}
  m_AmbientIntensity: 1
  m_AmbientMode: 0
  m_SubtractiveShadowColor: {r: 0.42, g: 0.478, b: 0.627, a: 1}
  m_SkyboxMaterial: {fileID: 10304, guid: 0000000000000000f000000000000000, type: 0}
  m_HaloStrength: 0.5
  m_FlareStrength: 1
  m_FlareFadeSpeed: 3
  m_HaloTexture: {fileID: 0}
  m_SpotCookie: {fileID: 10001, guid: 0000000000000000e000000000000000, type: 0}
  m_DefaultReflectionMode: 0
  m_DefaultReflectionResolution: 128
  m_ReflectionBounces: 1
  m_ReflectionIntensity: 1
  m_CustomReflection: {fileID: 0}
  m_Sun: {fileID: 0}
  m_IndirectSpecularColor: {r: 0.37311953, g: 0.38074014, b: 0.3587274, a: 1}
  m_UseRadianceAmbientProbe: 0
--- !u!157 &3
LightmapSettings:
  m_ObjectHideFlags: 0
  serializedVersion: 11
  m_GIWorkflowMode: 0
  m_GISettings:
    serializedVersion: 2
    m_BounceScale: 1
    m_IndirectOutputScale: 1
    m_AlbedoBoost: 1
    m_EnvironmentLightingMode: 0
    m_EnableBakedLightmaps: 1
    m_EnableRealtimeLightmaps: 1
  m_LightmapEditorSettings:
    serializedVersion: 12
    m_Resolution: 2
    m_BakeResolution: 40
    m_AtlasSize: 1024
    m_AO: 0
    m_AOMaxDistance: 1
    m_CompAOExponent: 0
    m_CompAOExponentDirect: 0
    m_ExtractAmbientOcclusion: 0
    m_Padding: 2
    m_LightmapParameters: {fileID: 0}
    m_LightmapsBakeMode: 1
    m_TextureCompression: 1
    m_FinalGather: 0
    m_FinalGatherFiltering: 1
    m_FinalGatherRayCount: 1024
    m_ReflectionCompression: 2
    m_MixedBakeMode: 1
    m_BakeBackend: 0
    m_PVRSampling: 1
    m_PVRDirectSampleCount: 32
    m_PVRSampleCount: 500
    m_PVRBounces: 2
    m_PVREnvironmentSampleCount: 500
    m_PVREnvironmentReferencePointCount: 2048
    m_PVRFilteringMode: 0
    m_PVRDenoiserTypeDirect: 0
    m_PVRDenoiserTypeIndirect: 0
    m_PVRDenoiserTypeAO: 0
    m_PVRFilterTypeDirect: 0
    m_PVRFilterTypeIndirect: 0
    m_PVRFilterTypeAO: 0
    m_PVREnvironmentMIS: 0
    m_PVRCulling: 1
    m_PVRFilteringGaussRadiusDirect: 1
    m_PVRFilteringGaussRadiusIndirect: 5
    m_PVRFilteringGaussRadiusAO: 2
    m_PVRFilteringAtrousPositionSigmaDirect: 0.5
    m_PVRFilteringAtrousPositionSigmaIndirect: 2
    m_PVRFilteringAtrousPositionSigmaAO: 1
    m_ExportTrainingData: 0
    m_TrainingDataDestination: TrainingData
  m_LightingDataAsset: {fileID: 0}
  m_UseShadowmask: 0
--- !u!196 &4
NavMeshSettings:
  serializedVersion: 2
  m_ObjectHideFlags: 0
  m_BuildSettings:
    serializedVersion: 2
    agentTypeID: 0
    agentRadius: 0.5
    agentHeight: 2
    agentSlope: 45
    agentClimb: 0.4
    ledgeDropHeight: 0
    maxJumpAcrossDistance: 0
    minRegionArea: 2
    manualCellSize: 0
    cellSize: 0.16666667
    manualTileSize: 0
    tileSize: 256
    accuratePlacement: 0
    debug:
      m_Flags: 0
  m_NavMeshData: {fileID: 0}
--- !u!1001 &740691508
PrefabInstance:
  m_ObjectHideFlags: 0
  serializedVersion: 2
  m_Modification:
    m_TransformParent: {fileID: 1429449341}
    m_Modifications:
    - target: {fileID: 4992545353728192, guid: 7e54d9a2dcc97dc419b5c5dc91827090, type: 3}
      propertyPath: m_LocalPosition.x
      value: 0
      objectReference: {fileID: 0}
    - target: {fileID: 4992545353728192, guid: 7e54d9a2dcc97dc419b5c5dc91827090, type: 3}
      propertyPath: m_LocalPosition.y
      value: 0
      objectReference: {fileID: 0}
    - target: {fileID: 4992545353728192, guid: 7e54d9a2dcc97dc419b5c5dc91827090, type: 3}
      propertyPath: m_LocalPosition.z
      value: 0
      objectReference: {fileID: 0}
    - target: {fileID: 4992545353728192, guid: 7e54d9a2dcc97dc419b5c5dc91827090, type: 3}
      propertyPath: m_LocalRotation.x
      value: -0
      objectReference: {fileID: 0}
    - target: {fileID: 4992545353728192, guid: 7e54d9a2dcc97dc419b5c5dc91827090, type: 3}
      propertyPath: m_LocalRotation.y
      value: -0
      objectReference: {fileID: 0}
    - target: {fileID: 4992545353728192, guid: 7e54d9a2dcc97dc419b5c5dc91827090, type: 3}
      propertyPath: m_LocalRotation.z
      value: -0
      objectReference: {fileID: 0}
    - target: {fileID: 4992545353728192, guid: 7e54d9a2dcc97dc419b5c5dc91827090, type: 3}
      propertyPath: m_LocalRotation.w
      value: 1
      objectReference: {fileID: 0}
    - target: {fileID: 4992545353728192, guid: 7e54d9a2dcc97dc419b5c5dc91827090, type: 3}
      propertyPath: m_RootOrder
      value: 7
      objectReference: {fileID: 0}
    - target: {fileID: 114599940810694846, guid: 7e54d9a2dcc97dc419b5c5dc91827090,
        type: 3}
      propertyPath: HeadSetController
      value: 
      objectReference: {fileID: 1247140367}
    - target: {fileID: 114599940810694846, guid: 7e54d9a2dcc97dc419b5c5dc91827090,
        type: 3}
      propertyPath: cube
      value: 
      objectReference: {fileID: 1449465201}
    - target: {fileID: 1957738543716882, guid: 7e54d9a2dcc97dc419b5c5dc91827090, type: 3}
      propertyPath: m_IsActive
      value: 0
      objectReference: {fileID: 0}
    - target: {fileID: 1521971727860078, guid: 7e54d9a2dcc97dc419b5c5dc91827090, type: 3}
      propertyPath: m_IsActive
      value: 0
      objectReference: {fileID: 0}
    - target: {fileID: 114716436432430204, guid: 7e54d9a2dcc97dc419b5c5dc91827090,
        type: 3}
      propertyPath: m_grip
      value: 
      objectReference: {fileID: 2800000, guid: a6dbdf71d8d175a4db48683fd2a394bb, type: 3}
    - target: {fileID: 114260068407493118, guid: 7e54d9a2dcc97dc419b5c5dc91827090,
        type: 3}
      propertyPath: m_grip
      value: 
      objectReference: {fileID: 2800000, guid: a6dbdf71d8d175a4db48683fd2a394bb, type: 3}
    m_RemovedComponents: []
  m_SourcePrefab: {fileID: 100100000, guid: 7e54d9a2dcc97dc419b5c5dc91827090, type: 3}
--- !u!1 &992947307
GameObject:
  m_ObjectHideFlags: 0
  m_CorrespondingSourceObject: {fileID: 0}
  m_PrefabInstance: {fileID: 0}
  m_PrefabAsset: {fileID: 0}
  serializedVersion: 6
  m_Component:
  - component: {fileID: 992947308}
  - component: {fileID: 992947311}
  - component: {fileID: 992947310}
  - component: {fileID: 992947309}
  m_Layer: 4
  m_Name: Plane
  m_TagString: Untagged
  m_Icon: {fileID: 0}
  m_NavMeshLayer: 0
  m_StaticEditorFlags: 0
  m_IsActive: 1
--- !u!224 &992947308
RectTransform:
  m_ObjectHideFlags: 0
  m_CorrespondingSourceObject: {fileID: 0}
  m_PrefabInstance: {fileID: 0}
  m_PrefabAsset: {fileID: 0}
  m_GameObject: {fileID: 992947307}
  m_LocalRotation: {x: -0, y: -0, z: -0, w: 1}
  m_LocalPosition: {x: 0, y: 0, z: 6}
  m_LocalScale: {x: 30, y: 2, z: 30}
  m_Children: []
  m_Father: {fileID: 0}
  m_RootOrder: 2
  m_LocalEulerAnglesHint: {x: 0, y: 0, z: 0}
  m_AnchorMin: {x: 0.5, y: 0.5}
  m_AnchorMax: {x: 0.5, y: 0.5}
  m_AnchoredPosition: {x: 0, y: -0.6943548}
  m_SizeDelta: {x: 100, y: 100}
  m_Pivot: {x: 0.5, y: 0.5}
--- !u!64 &992947309
MeshCollider:
  m_ObjectHideFlags: 0
  m_CorrespondingSourceObject: {fileID: 0}
  m_PrefabInstance: {fileID: 0}
  m_PrefabAsset: {fileID: 0}
  m_GameObject: {fileID: 992947307}
  m_Material: {fileID: 0}
  m_IsTrigger: 0
  m_Enabled: 1
  serializedVersion: 3
  m_Convex: 0
  m_CookingOptions: 14
  m_Mesh: {fileID: 10209, guid: 0000000000000000e000000000000000, type: 0}
--- !u!23 &992947310
MeshRenderer:
  m_ObjectHideFlags: 0
  m_CorrespondingSourceObject: {fileID: 0}
  m_PrefabInstance: {fileID: 0}
  m_PrefabAsset: {fileID: 0}
  m_GameObject: {fileID: 992947307}
  m_Enabled: 1
  m_CastShadows: 1
  m_ReceiveShadows: 1
  m_DynamicOccludee: 1
  m_MotionVectors: 1
  m_LightProbeUsage: 1
  m_ReflectionProbeUsage: 1
  m_RenderingLayerMask: 1
  m_RendererPriority: 0
  m_Materials:
  - {fileID: 10303, guid: 0000000000000000f000000000000000, type: 0}
  m_StaticBatchInfo:
    firstSubMesh: 0
    subMeshCount: 0
  m_StaticBatchRoot: {fileID: 0}
  m_ProbeAnchor: {fileID: 0}
  m_LightProbeVolumeOverride: {fileID: 0}
  m_ScaleInLightmap: 1
  m_ReceiveGI: 1
  m_PreserveUVs: 0
  m_IgnoreNormalsForChartDetection: 0
  m_ImportantGI: 0
  m_StitchLightmapSeams: 1
  m_SelectedEditorRenderState: 3
  m_MinimumChartSize: 4
  m_AutoUVMaxDistance: 0.5
  m_AutoUVMaxAngle: 89
  m_LightmapParameters: {fileID: 0}
  m_SortingLayerID: 0
  m_SortingLayer: 0
  m_SortingOrder: 0
--- !u!33 &992947311
MeshFilter:
  m_ObjectHideFlags: 0
  m_CorrespondingSourceObject: {fileID: 0}
  m_PrefabInstance: {fileID: 0}
  m_PrefabAsset: {fileID: 0}
  m_GameObject: {fileID: 992947307}
  m_Mesh: {fileID: 10209, guid: 0000000000000000e000000000000000, type: 0}
--- !u!1 &1173464057 stripped
GameObject:
  m_CorrespondingSourceObject: {fileID: 118676, guid: f4d2c95a82cadba4fb259ca17b5a8404,
    type: 3}
  m_PrefabInstance: {fileID: 1429449336}
  m_PrefabAsset: {fileID: 0}
--- !u!114 &1173464058
MonoBehaviour:
  m_ObjectHideFlags: 0
  m_CorrespondingSourceObject: {fileID: 0}
  m_PrefabInstance: {fileID: 0}
  m_PrefabAsset: {fileID: 0}
  m_GameObject: {fileID: 1173464057}
  m_Enabled: 1
  m_EditorHideFlags: 0
  m_Script: {fileID: 11500000, guid: 1c1373b1bff640c4c9d8db8fb4369176, type: 3}
  m_Name: 
  m_EditorClassIdentifier: 
  confirmBtn: 2
--- !u!1 &1247140367
GameObject:
  m_ObjectHideFlags: 0
  m_CorrespondingSourceObject: {fileID: 131464, guid: 17cb2896f1fc3b34592b05ec863276e1,
    type: 2}
  m_PrefabInstance: {fileID: 0}
  m_PrefabAsset: {fileID: 0}
  serializedVersion: 6
  m_Component:
  - component: {fileID: 1247140368}
  - component: {fileID: 1247140370}
  - component: {fileID: 1247140369}
  m_Layer: 0
  m_Name: HeadSetControl
  m_TagString: Untagged
  m_Icon: {fileID: 0}
  m_NavMeshLayer: 0
  m_StaticEditorFlags: 0
  m_IsActive: 0
--- !u!4 &1247140368
Transform:
  m_ObjectHideFlags: 0
  m_CorrespondingSourceObject: {fileID: 450876, guid: 17cb2896f1fc3b34592b05ec863276e1,
    type: 2}
  m_PrefabInstance: {fileID: 0}
  m_PrefabAsset: {fileID: 0}
  m_GameObject: {fileID: 1247140367}
  m_LocalRotation: {x: 0, y: 0, z: 0, w: 1}
  m_LocalPosition: {x: 0, y: 0, z: 2}
  m_LocalScale: {x: 0.008, y: 0.008, z: 1}
  m_Children: []
  m_Father: {fileID: 1580358426}
  m_RootOrder: 0
  m_LocalEulerAnglesHint: {x: 0, y: 0, z: 0}
--- !u!114 &1247140369
MonoBehaviour:
  m_ObjectHideFlags: 0
  m_CorrespondingSourceObject: {fileID: 11413886, guid: 17cb2896f1fc3b34592b05ec863276e1,
    type: 2}
  m_PrefabInstance: {fileID: 0}
  m_PrefabAsset: {fileID: 0}
  m_GameObject: {fileID: 1247140367}
  m_Enabled: 1
  m_EditorHideFlags: 0
  m_Script: {fileID: 11500000, guid: 98e4b5f16b6c106419108ad91d0e14d8, type: 3}
  m_Name: 
  m_EditorClassIdentifier: 
  clickMethod: 0
  collisionClick: 0
  autoActivatingCanvas: {fileID: 0}
  hoveringElement: {fileID: 0}
  hoverDurationTimer: 0
  canClickOnHover: 0
  pointerOriginTransform: {fileID: 0}
--- !u!212 &1247140370
SpriteRenderer:
  m_ObjectHideFlags: 0
  m_CorrespondingSourceObject: {fileID: 21297492, guid: 17cb2896f1fc3b34592b05ec863276e1,
    type: 2}
  m_PrefabInstance: {fileID: 0}
  m_PrefabAsset: {fileID: 0}
  m_GameObject: {fileID: 1247140367}
  m_Enabled: 1
  m_CastShadows: 0
  m_ReceiveShadows: 0
  m_DynamicOccludee: 1
  m_MotionVectors: 1
  m_LightProbeUsage: 0
  m_ReflectionProbeUsage: 0
  m_RenderingLayerMask: 1
  m_RendererPriority: 0
  m_Materials:
  - {fileID: 10754, guid: 0000000000000000f000000000000000, type: 0}
  m_StaticBatchInfo:
    firstSubMesh: 0
    subMeshCount: 0
  m_StaticBatchRoot: {fileID: 0}
  m_ProbeAnchor: {fileID: 0}
  m_LightProbeVolumeOverride: {fileID: 0}
  m_ScaleInLightmap: 1
  m_ReceiveGI: 1
  m_PreserveUVs: 0
  m_IgnoreNormalsForChartDetection: 0
  m_ImportantGI: 0
  m_StitchLightmapSeams: 0
  m_SelectedEditorRenderState: 0
  m_MinimumChartSize: 4
  m_AutoUVMaxDistance: 0.5
  m_AutoUVMaxAngle: 89
  m_LightmapParameters: {fileID: 0}
  m_SortingLayerID: 0
  m_SortingLayer: 0
  m_SortingOrder: 30000
  m_Sprite: {fileID: 21300000, guid: b5912d1035c51c84584d6aba20db980b, type: 3}
  m_Color: {r: 0, g: 0.95686275, b: 1, a: 1}
  m_FlipX: 0
  m_FlipY: 0
  m_DrawMode: 0
  m_Size: {x: 1, y: 1}
  m_AdaptiveModeThreshold: 0.5
  m_SpriteTileMode: 0
  m_WasSpriteAssigned: 1
  m_MaskInteraction: 0
  m_SpriteSortPoint: 0
--- !u!1001 &1429449336
PrefabInstance:
  m_ObjectHideFlags: 0
  serializedVersion: 2
  m_Modification:
    m_TransformParent: {fileID: 0}
    m_Modifications:
    - target: {fileID: 168586, guid: f4d2c95a82cadba4fb259ca17b5a8404, type: 3}
      propertyPath: m_IsActive
      value: 1
      objectReference: {fileID: 0}
    - target: {fileID: 2053100, guid: f4d2c95a82cadba4fb259ca17b5a8404, type: 3}
      propertyPath: near clip plane
      value: .100000001
      objectReference: {fileID: 0}
    - target: {fileID: 428262, guid: f4d2c95a82cadba4fb259ca17b5a8404, type: 3}
      propertyPath: m_LocalPosition.x
      value: 0
      objectReference: {fileID: 0}
    - target: {fileID: 428262, guid: f4d2c95a82cadba4fb259ca17b5a8404, type: 3}
      propertyPath: m_LocalPosition.y
      value: 1.67
      objectReference: {fileID: 0}
    - target: {fileID: 428262, guid: f4d2c95a82cadba4fb259ca17b5a8404, type: 3}
      propertyPath: m_LocalPosition.z
      value: 0
      objectReference: {fileID: 0}
    - target: {fileID: 428262, guid: f4d2c95a82cadba4fb259ca17b5a8404, type: 3}
      propertyPath: m_LocalRotation.x
      value: 0
      objectReference: {fileID: 0}
    - target: {fileID: 428262, guid: f4d2c95a82cadba4fb259ca17b5a8404, type: 3}
      propertyPath: m_LocalRotation.y
      value: 0
      objectReference: {fileID: 0}
    - target: {fileID: 428262, guid: f4d2c95a82cadba4fb259ca17b5a8404, type: 3}
      propertyPath: m_LocalRotation.z
      value: 0
      objectReference: {fileID: 0}
    - target: {fileID: 428262, guid: f4d2c95a82cadba4fb259ca17b5a8404, type: 3}
      propertyPath: m_LocalRotation.w
      value: 1
      objectReference: {fileID: 0}
    - target: {fileID: 428262, guid: f4d2c95a82cadba4fb259ca17b5a8404, type: 3}
      propertyPath: m_RootOrder
      value: 0
      objectReference: {fileID: 0}
    - target: {fileID: 11442420, guid: f4d2c95a82cadba4fb259ca17b5a8404, type: 3}
      propertyPath: showFPS
      value: 0
      objectReference: {fileID: 0}
    - target: {fileID: 11442420, guid: f4d2c95a82cadba4fb259ca17b5a8404, type: 3}
      propertyPath: renderAsync
      value: 1
      objectReference: {fileID: 0}
    - target: {fileID: 11442420, guid: f4d2c95a82cadba4fb259ca17b5a8404, type: 3}
      propertyPath: editorDebug
      value: 0
      objectReference: {fileID: 0}
    - target: {fileID: 11442420, guid: f4d2c95a82cadba4fb259ca17b5a8404, type: 3}
      propertyPath: EditorDebug
      value: 0
      objectReference: {fileID: 0}
    - target: {fileID: 11442420, guid: f4d2c95a82cadba4fb259ca17b5a8404, type: 3}
      propertyPath: headTrackSensorIndex
      value: 2
      objectReference: {fileID: 0}
    - target: {fileID: 11442420, guid: f4d2c95a82cadba4fb259ca17b5a8404, type: 3}
      propertyPath: deviceType
      value: 7
      objectReference: {fileID: 0}
    - target: {fileID: 11442420, guid: f4d2c95a82cadba4fb259ca17b5a8404, type: 3}
      propertyPath: AutoAdapt
      value: 0
      objectReference: {fileID: 0}
    - target: {fileID: 11442420, guid: f4d2c95a82cadba4fb259ca17b5a8404, type: 3}
      propertyPath: handnum
      value: 0
      objectReference: {fileID: 0}
    - target: {fileID: 11442420, guid: f4d2c95a82cadba4fb259ca17b5a8404, type: 3}
      propertyPath: _headDofNum
      value: 1
      objectReference: {fileID: 0}
    - target: {fileID: 11442420, guid: f4d2c95a82cadba4fb259ca17b5a8404, type: 3}
      propertyPath: _handDofNum
      value: 1
      objectReference: {fileID: 0}
    - target: {fileID: 11442420, guid: f4d2c95a82cadba4fb259ca17b5a8404, type: 3}
      propertyPath: safetyrange
      value: 2
      objectReference: {fileID: 0}
    - target: {fileID: 11442420, guid: f4d2c95a82cadba4fb259ca17b5a8404, type: 3}
      propertyPath: screenFade
      value: 0
      objectReference: {fileID: 0}
    - target: {fileID: 11442420, guid: f4d2c95a82cadba4fb259ca17b5a8404, type: 3}
      propertyPath: sixDofRecenter
      value: 1
      objectReference: {fileID: 0}
    - target: {fileID: 11442420, guid: f4d2c95a82cadba4fb259ca17b5a8404, type: 3}
      propertyPath: defaultRenderTexture
      value: 1
      objectReference: {fileID: 0}
    - target: {fileID: 11442420, guid: f4d2c95a82cadba4fb259ca17b5a8404, type: 3}
      propertyPath: showSafePanel
      value: 1
      objectReference: {fileID: 0}
    - target: {fileID: 11442420, guid: f4d2c95a82cadba4fb259ca17b5a8404, type: 3}
      propertyPath: rtAntiAlising
      value: 2
      objectReference: {fileID: 0}
    - target: {fileID: 11442420, guid: f4d2c95a82cadba4fb259ca17b5a8404, type: 3}
      propertyPath: defaultFPS
      value: 1
      objectReference: {fileID: 0}
    - target: {fileID: 11442420, guid: f4d2c95a82cadba4fb259ca17b5a8404, type: 3}
      propertyPath: PVRNeck
      value: 0
      objectReference: {fileID: 0}
    - target: {fileID: 11442420, guid: f4d2c95a82cadba4fb259ca17b5a8404, type: 3}
      propertyPath: rtSize.x
      value: 2048
      objectReference: {fileID: 0}
    - target: {fileID: 11442420, guid: f4d2c95a82cadba4fb259ca17b5a8404, type: 3}
      propertyPath: rtSize.y
      value: 2048
      objectReference: {fileID: 0}
    - target: {fileID: 11442420, guid: f4d2c95a82cadba4fb259ca17b5a8404, type: 3}
      propertyPath: customFPS
      value: 99
      objectReference: {fileID: 0}
    - target: {fileID: 11442420, guid: f4d2c95a82cadba4fb259ca17b5a8404, type: 3}
      propertyPath: UseSinglePass
      value: 0
      objectReference: {fileID: 0}
    - target: {fileID: 448494, guid: f4d2c95a82cadba4fb259ca17b5a8404, type: 3}
      propertyPath: m_RootOrder
      value: 1
      objectReference: {fileID: 0}
    - target: {fileID: 402890, guid: f4d2c95a82cadba4fb259ca17b5a8404, type: 3}
      propertyPath: m_RootOrder
      value: 5
      objectReference: {fileID: 0}
    - target: {fileID: 436020, guid: f4d2c95a82cadba4fb259ca17b5a8404, type: 3}
      propertyPath: m_RootOrder
      value: 4
      objectReference: {fileID: 0}
    - target: {fileID: 497612, guid: f4d2c95a82cadba4fb259ca17b5a8404, type: 3}
      propertyPath: m_RootOrder
      value: 4
      objectReference: {fileID: 0}
    - target: {fileID: 478846, guid: f4d2c95a82cadba4fb259ca17b5a8404, type: 3}
      propertyPath: m_RootOrder
      value: 6
      objectReference: {fileID: 0}
    - target: {fileID: 487702, guid: f4d2c95a82cadba4fb259ca17b5a8404, type: 3}
      propertyPath: m_RootOrder
      value: 8
      objectReference: {fileID: 0}
    - target: {fileID: 410582, guid: f4d2c95a82cadba4fb259ca17b5a8404, type: 3}
      propertyPath: m_RootOrder
      value: 3
      objectReference: {fileID: 0}
    - target: {fileID: 11408450, guid: f4d2c95a82cadba4fb259ca17b5a8404, type: 3}
      propertyPath: m_Enabled
      value: 0
      objectReference: {fileID: 0}
    - target: {fileID: 198558, guid: f4d2c95a82cadba4fb259ca17b5a8404, type: 3}
      propertyPath: m_IsActive
      value: 0
      objectReference: {fileID: 0}
    - target: {fileID: 22323508, guid: f4d2c95a82cadba4fb259ca17b5a8404, type: 3}
      propertyPath: m_SortingOrder
      value: 0
      objectReference: {fileID: 0}
    - target: {fileID: 22354700, guid: f4d2c95a82cadba4fb259ca17b5a8404, type: 3}
      propertyPath: m_SortingOrder
      value: 0
      objectReference: {fileID: 0}
    - target: {fileID: 22348418, guid: f4d2c95a82cadba4fb259ca17b5a8404, type: 3}
      propertyPath: m_SortingOrder
      value: 0
      objectReference: {fileID: 0}
    - target: {fileID: 22343162, guid: f4d2c95a82cadba4fb259ca17b5a8404, type: 3}
      propertyPath: m_SortingOrder
      value: 0
      objectReference: {fileID: 0}
    - target: {fileID: 11494788, guid: f4d2c95a82cadba4fb259ca17b5a8404, type: 3}
      propertyPath: m_Enabled
      value: 0
      objectReference: {fileID: 0}
    - target: {fileID: 118676, guid: f4d2c95a82cadba4fb259ca17b5a8404, type: 3}
      propertyPath: m_IsActive
      value: 1
      objectReference: {fileID: 0}
    - target: {fileID: 439732, guid: f4d2c95a82cadba4fb259ca17b5a8404, type: 3}
      propertyPath: m_RootOrder
      value: 0
      objectReference: {fileID: 0}
    - target: {fileID: 22402160, guid: f4d2c95a82cadba4fb259ca17b5a8404, type: 3}
      propertyPath: m_AnchoredPosition.y
      value: .109999999
      objectReference: {fileID: 0}
    - target: {fileID: 22402160, guid: f4d2c95a82cadba4fb259ca17b5a8404, type: 3}
      propertyPath: m_AnchoredPosition.x
      value: -.0500000007
      objectReference: {fileID: 0}
    - target: {fileID: 469152, guid: f4d2c95a82cadba4fb259ca17b5a8404, type: 3}
      propertyPath: m_RootOrder
      value: 1
      objectReference: {fileID: 0}
    - target: {fileID: 478324, guid: f4d2c95a82cadba4fb259ca17b5a8404, type: 3}
      propertyPath: m_RootOrder
      value: 3
      objectReference: {fileID: 0}
    - target: {fileID: 100914, guid: f4d2c95a82cadba4fb259ca17b5a8404, type: 3}
      propertyPath: m_IsActive
      value: 0
      objectReference: {fileID: 0}
    - target: {fileID: 11439172, guid: f4d2c95a82cadba4fb259ca17b5a8404, type: 3}
      propertyPath: m_Text
      value: 
      objectReference: {fileID: 0}
    - target: {fileID: 11477414, guid: f4d2c95a82cadba4fb259ca17b5a8404, type: 3}
      propertyPath: m_Enabled
      value: 1
      objectReference: {fileID: 0}
    - target: {fileID: 2014064, guid: f4d2c95a82cadba4fb259ca17b5a8404, type: 3}
      propertyPath: m_Enabled
      value: 1
      objectReference: {fileID: 0}
    - target: {fileID: 2014064, guid: f4d2c95a82cadba4fb259ca17b5a8404, type: 3}
      propertyPath: near clip plane
      value: .100000001
      objectReference: {fileID: 0}
    - target: {fileID: 2063796, guid: f4d2c95a82cadba4fb259ca17b5a8404, type: 3}
      propertyPath: m_Enabled
      value: 1
      objectReference: {fileID: 0}
    - target: {fileID: 2063796, guid: f4d2c95a82cadba4fb259ca17b5a8404, type: 3}
      propertyPath: near clip plane
      value: .100000001
      objectReference: {fileID: 0}
    - target: {fileID: 169544, guid: f4d2c95a82cadba4fb259ca17b5a8404, type: 3}
      propertyPath: m_IsActive
      value: 0
      objectReference: {fileID: 0}
    - target: {fileID: 2364890, guid: f4d2c95a82cadba4fb259ca17b5a8404, type: 3}
      propertyPath: m_CastShadows
      value: 0
      objectReference: {fileID: 0}
    - target: {fileID: 440542, guid: f4d2c95a82cadba4fb259ca17b5a8404, type: 3}
      propertyPath: m_RootOrder
      value: 2
      objectReference: {fileID: 0}
    - target: {fileID: 11445850, guid: f4d2c95a82cadba4fb259ca17b5a8404, type: 3}
      propertyPath: m_Enabled
      value: 0
      objectReference: {fileID: 0}
    - target: {fileID: 22436086, guid: f4d2c95a82cadba4fb259ca17b5a8404, type: 3}
      propertyPath: m_RootOrder
      value: 0
      objectReference: {fileID: 0}
    - target: {fileID: 22484690, guid: f4d2c95a82cadba4fb259ca17b5a8404, type: 3}
      propertyPath: m_RootOrder
      value: 2
      objectReference: {fileID: 0}
    - target: {fileID: 470010, guid: f4d2c95a82cadba4fb259ca17b5a8404, type: 3}
      propertyPath: m_RootOrder
      value: 2
      objectReference: {fileID: 0}
    - target: {fileID: 145918, guid: f4d2c95a82cadba4fb259ca17b5a8404, type: 3}
      propertyPath: m_IsActive
      value: 0
      objectReference: {fileID: 0}
    - target: {fileID: 1926402035995976, guid: f4d2c95a82cadba4fb259ca17b5a8404, type: 3}
      propertyPath: m_IsActive
      value: 1
      objectReference: {fileID: 0}
    m_RemovedComponents:
    - {fileID: 11464666, guid: f4d2c95a82cadba4fb259ca17b5a8404, type: 3}
    - {fileID: 11429112, guid: f4d2c95a82cadba4fb259ca17b5a8404, type: 3}
    - {fileID: 11404210, guid: f4d2c95a82cadba4fb259ca17b5a8404, type: 3}
    - {fileID: 11408450, guid: f4d2c95a82cadba4fb259ca17b5a8404, type: 3}
    - {fileID: 11494788, guid: f4d2c95a82cadba4fb259ca17b5a8404, type: 3}
  m_SourcePrefab: {fileID: 100100000, guid: f4d2c95a82cadba4fb259ca17b5a8404, type: 3}
--- !u!4 &1429449341 stripped
Transform:
  m_CorrespondingSourceObject: {fileID: 428262, guid: f4d2c95a82cadba4fb259ca17b5a8404,
    type: 3}
  m_PrefabInstance: {fileID: 1429449336}
  m_PrefabAsset: {fileID: 0}
--- !u!1 &1449465201
GameObject:
  m_ObjectHideFlags: 0
  m_CorrespondingSourceObject: {fileID: 0}
  m_PrefabInstance: {fileID: 0}
  m_PrefabAsset: {fileID: 0}
  serializedVersion: 6
  m_Component:
  - component: {fileID: 1449465207}
  - component: {fileID: 1449465203}
  - component: {fileID: 1449465202}
  - component: {fileID: 1449465204}
  - component: {fileID: 1449465205}
  - component: {fileID: 1449465206}
  m_Layer: 4
  m_Name: Cube
  m_TagString: Untagged
  m_Icon: {fileID: 0}
  m_NavMeshLayer: 0
  m_StaticEditorFlags: 0
  m_IsActive: 1
--- !u!23 &1449465202
MeshRenderer:
  m_ObjectHideFlags: 0
  m_CorrespondingSourceObject: {fileID: 0}
  m_PrefabInstance: {fileID: 0}
  m_PrefabAsset: {fileID: 0}
  m_GameObject: {fileID: 1449465201}
  m_Enabled: 1
  m_CastShadows: 1
  m_ReceiveShadows: 1
  m_DynamicOccludee: 1
  m_MotionVectors: 1
  m_LightProbeUsage: 1
  m_ReflectionProbeUsage: 1
  m_RenderingLayerMask: 1
  m_RendererPriority: 0
  m_Materials:
  - {fileID: 2100000, guid: c95d7ec236299944fa448bef49b89484, type: 2}
  m_StaticBatchInfo:
    firstSubMesh: 0
    subMeshCount: 0
  m_StaticBatchRoot: {fileID: 0}
  m_ProbeAnchor: {fileID: 0}
  m_LightProbeVolumeOverride: {fileID: 0}
  m_ScaleInLightmap: 1
  m_ReceiveGI: 1
  m_PreserveUVs: 1
  m_IgnoreNormalsForChartDetection: 0
  m_ImportantGI: 0
  m_StitchLightmapSeams: 0
  m_SelectedEditorRenderState: 3
  m_MinimumChartSize: 4
  m_AutoUVMaxDistance: 0.5
  m_AutoUVMaxAngle: 89
  m_LightmapParameters: {fileID: 0}
  m_SortingLayerID: 0
  m_SortingLayer: 0
  m_SortingOrder: 0
--- !u!65 &1449465203
BoxCollider:
  m_ObjectHideFlags: 0
  m_CorrespondingSourceObject: {fileID: 0}
  m_PrefabInstance: {fileID: 0}
  m_PrefabAsset: {fileID: 0}
  m_GameObject: {fileID: 1449465201}
  m_Material: {fileID: 0}
  m_IsTrigger: 0
  m_Enabled: 1
  serializedVersion: 2
  m_Size: {x: 1, y: 1, z: 1.01}
  m_Center: {x: 0, y: 0, z: -0.01}
--- !u!33 &1449465204
MeshFilter:
  m_ObjectHideFlags: 0
  m_CorrespondingSourceObject: {fileID: 0}
  m_PrefabInstance: {fileID: 0}
  m_PrefabAsset: {fileID: 0}
  m_GameObject: {fileID: 1449465201}
  m_Mesh: {fileID: 10202, guid: 0000000000000000e000000000000000, type: 0}
--- !u!54 &1449465205
Rigidbody:
  m_ObjectHideFlags: 0
  m_CorrespondingSourceObject: {fileID: 0}
  m_PrefabInstance: {fileID: 0}
  m_PrefabAsset: {fileID: 0}
  m_GameObject: {fileID: 1449465201}
  serializedVersion: 2
  m_Mass: 1
  m_Drag: 0
  m_AngularDrag: 0.05
  m_UseGravity: 1
  m_IsKinematic: 0
  m_Interpolate: 0
  m_Constraints: 80
  m_CollisionDetection: 0
--- !u!114 &1449465206
MonoBehaviour:
  m_ObjectHideFlags: 0
  m_CorrespondingSourceObject: {fileID: 0}
  m_PrefabInstance: {fileID: 0}
  m_PrefabAsset: {fileID: 0}
  m_GameObject: {fileID: 1449465201}
  m_Enabled: 1
  m_EditorHideFlags: 0
  m_Script: {fileID: 11500000, guid: e11c78f1f13b56f46ba8fcbe4097fe27, type: 3}
  m_Name: 
  m_EditorClassIdentifier: 
--- !u!224 &1449465207
RectTransform:
  m_ObjectHideFlags: 0
  m_CorrespondingSourceObject: {fileID: 0}
  m_PrefabInstance: {fileID: 0}
  m_PrefabAsset: {fileID: 0}
  m_GameObject: {fileID: 1449465201}
  m_LocalRotation: {x: 0, y: 0, z: 0, w: 1}
  m_LocalPosition: {x: 0, y: 0, z: 6}
  m_LocalScale: {x: 2, y: 2, z: 2}
  m_Children: []
  m_Father: {fileID: 0}
  m_RootOrder: 1
  m_LocalEulerAnglesHint: {x: 0, y: 0, z: 0}
  m_AnchorMin: {x: 0.5, y: 0.5}
  m_AnchorMax: {x: 0.5, y: 0.5}
  m_AnchoredPosition: {x: 0, y: 1.4912905}
  m_SizeDelta: {x: 100, y: 100}
  m_Pivot: {x: 0.5, y: 0.5}
--- !u!1 &1576487192 stripped
GameObject:
  m_CorrespondingSourceObject: {fileID: 1437641895877200, guid: 7e54d9a2dcc97dc419b5c5dc91827090,
    type: 3}
  m_PrefabInstance: {fileID: 740691508}
  m_PrefabAsset: {fileID: 0}
--- !u!1 &1580358425
GameObject:
  m_ObjectHideFlags: 0
  m_CorrespondingSourceObject: {fileID: 108710, guid: 17cb2896f1fc3b34592b05ec863276e1,
    type: 2}
  m_PrefabInstance: {fileID: 0}
  m_PrefabAsset: {fileID: 0}
  serializedVersion: 6
  m_Component:
  - component: {fileID: 1580358426}
  m_Layer: 0
  m_Name: HeadControl
  m_TagString: Untagged
  m_Icon: {fileID: 0}
  m_NavMeshLayer: 0
  m_StaticEditorFlags: 0
  m_IsActive: 1
--- !u!4 &1580358426
Transform:
  m_ObjectHideFlags: 0
  m_CorrespondingSourceObject: {fileID: 406086, guid: 17cb2896f1fc3b34592b05ec863276e1,
    type: 2}
  m_PrefabInstance: {fileID: 0}
  m_PrefabAsset: {fileID: 0}
  m_GameObject: {fileID: 1580358425}
  m_LocalRotation: {x: 0, y: 0, z: 0, w: 1}
  m_LocalPosition: {x: 0, y: 0, z: 0}
  m_LocalScale: {x: 1, y: 1, z: 1}
  m_Children:
  - {fileID: 1247140368}
  m_Father: {fileID: 1429449341}
  m_RootOrder: 2
  m_LocalEulerAnglesHint: {x: 0, y: 0, z: 0}
--- !u!1 &1835767334 stripped
GameObject:
  m_CorrespondingSourceObject: {fileID: 1221237887922624, guid: 7e54d9a2dcc97dc419b5c5dc91827090,
    type: 3}
  m_PrefabInstance: {fileID: 740691508}
  m_PrefabAsset: {fileID: 0}
--- !u!1 &1924993514 stripped
GameObject:
  m_CorrespondingSourceObject: {fileID: 1017990686937292, guid: 7e54d9a2dcc97dc419b5c5dc91827090,
    type: 3}
  m_PrefabInstance: {fileID: 740691508}
  m_PrefabAsset: {fileID: 0}
--- !u!114 &1924993516
MonoBehaviour:
  m_ObjectHideFlags: 0
  m_CorrespondingSourceObject: {fileID: 0}
  m_PrefabInstance: {fileID: 0}
  m_PrefabAsset: {fileID: 0}
  m_GameObject: {fileID: 1924993514}
  m_Enabled: 1
  m_EditorHideFlags: 0
  m_Script: {fileID: 11500000, guid: 702c704921b5abf4786866a5b87f46b5, type: 3}
  m_Name: 
  m_EditorClassIdentifier: 
  HeadSetController: {fileID: 1247140367}
  controller0: {fileID: 1576487192}
  controller1: {fileID: 1835767334}
  cube: {fileID: 1449465201}
  normat: {fileID: 2100000, guid: c95d7ec236299944fa448bef49b89484, type: 2}
  gazemat: {fileID: 2100000, guid: 3a2a4a14d26888e429bc4eb8b84f2374, type: 2}
  clickmat: {fileID: 2100000, guid: fa7a26ea01645ab46a89d62420f831b8, type: 2}
  rayDefaultLength: 4
